info face="DejaVu Sans Condensed" size=44 bold=0 italic=0 charset="" unicode=0 stretchH=100 smooth=1 aa=1 padding=1,1,4,3 spacing=-2,-2
common lineHeight=55 base=41 scaleW=512 scaleH=256 pages=1 packed=0
page id=0 file="big.png"
chars count=97
char id=0       x=158  y=0    width=25   height=45   xoffset=-1   yoffset=8    xadvance=26   page=0    chnl=0 
char id=10      x=0    y=0    width=0    height=0    xoffset=-1   yoffset=0    xadvance=2    page=0    chnl=0 
char id=32      x=0    y=0    width=0    height=0    xoffset=-1   yoffset=0    xadvance=15   page=0    chnl=0 
char id=33      x=473  y=89   width=9    height=38   xoffset=-1   yoffset=7    xadvance=18   page=0    chnl=0 
char id=34      x=0    y=164  width=16   height=18   xoffset=-1   yoffset=7    xadvance=20   page=0    chnl=0 
char id=35      x=0    y=127  width=32   height=37   xoffset=-1   yoffset=8    xadvance=35   page=0    chnl=0 
char id=36      x=80   y=0    width=23   height=46   xoffset=-1   yoffset=6    xadvance=27   page=0    chnl=0 
char id=37      x=296  y=50   width=38   height=39   xoffset=-1   yoffset=7    xadvance=40   page=0    chnl=0 
char id=38      x=334  y=50   width=32   height=39   xoffset=-1   yoffset=7    xadvance=33   page=0    chnl=0 
char id=39      x=16   y=164  width=9    height=18   xoffset=-1   yoffset=7    xadvance=13   page=0    chnl=0 
char id=40      x=103  y=0    width=14   height=45   xoffset=-1   yoffset=6    xadvance=17   page=0    chnl=0 
char id=41      x=117  y=0    width=14   height=45   xoffset=-1   yoffset=6    xadvance=17   page=0    chnl=0 
char id=42      x=482  y=127  width=22   height=26   xoffset=-1   yoffset=7    xadvance=22   page=0    chnl=0 
char id=43      x=60   y=127  width=29   height=33   xoffset=-1   yoffset=12   xadvance=35   page=0    chnl=0 
char id=44      x=83   y=164  width=10   height=17   xoffset=-1   yoffset=34   xadvance=15   page=0    chnl=0 
char id=45      x=145  y=164  width=16   height=9    xoffset=-1   yoffset=26   xadvance=16   page=0    chnl=0 
char id=46      x=136  y=164  width=9    height=11   xoffset=-1   yoffset=34   xadvance=15   page=0    chnl=0 
char id=47      x=253  y=0    width=18   height=43   xoffset=-1   yoffset=7    xadvance=15   page=0    chnl=0 
char id=48      x=271  y=50   width=25   height=39   xoffset=-1   yoffset=7    xadvance=27   page=0    chnl=0 
char id=49      x=378  y=89   width=22   height=38   xoffset=-1   yoffset=7    xadvance=27   page=0    chnl=0 
char id=50      x=400  y=89   width=24   height=38   xoffset=-1   yoffset=7    xadvance=27   page=0    chnl=0 
char id=51      x=149  y=50   width=24   height=39   xoffset=-1   yoffset=7    xadvance=27   page=0    chnl=0 
char id=52      x=424  y=89   width=26   height=38   xoffset=-1   yoffset=7    xadvance=27   page=0    chnl=0 
char id=53      x=173  y=50   width=23   height=39   xoffset=-1   yoffset=7    xadvance=27   page=0    chnl=0 
char id=54      x=196  y=50   width=25   height=39   xoffset=-1   yoffset=7    xadvance=27   page=0    chnl=0 
char id=55      x=450  y=89   width=23   height=38   xoffset=-1   yoffset=7    xadvance=27   page=0    chnl=0 
char id=56      x=221  y=50   width=25   height=39   xoffset=-1   yoffset=7    xadvance=27   page=0    chnl=0 
char id=57      x=246  y=50   width=25   height=39   xoffset=-1   yoffset=7    xadvance=27   page=0    chnl=0 
char id=58      x=473  y=127  width=9    height=28   xoffset=-1   yoffset=17   xadvance=15   page=0    chnl=0 
char id=59      x=50   y=127  width=10   height=34   xoffset=-1   yoffset=17   xadvance=15   page=0    chnl=0 
char id=60      x=415  y=127  width=29   height=29   xoffset=-1   yoffset=14   xadvance=35   page=0    chnl=0 
char id=61      x=54   y=164  width=29   height=18   xoffset=-1   yoffset=20   xadvance=35   page=0    chnl=0 
char id=62      x=444  y=127  width=29   height=29   xoffset=-1   yoffset=14   xadvance=35   page=0    chnl=0 
char id=63      x=482  y=89   width=21   height=38   xoffset=-1   yoffset=7    xadvance=23   page=0    chnl=0 
char id=64      x=214  y=0    width=39   height=44   xoffset=-1   yoffset=9    xadvance=42   page=0    chnl=0 
char id=65      x=366  y=50   width=31   height=38   xoffset=-1   yoffset=7    xadvance=29   page=0    chnl=0 
char id=66      x=397  y=50   width=26   height=38   xoffset=-1   yoffset=7    xadvance=29   page=0    chnl=0 
char id=67      x=435  y=0    width=28   height=39   xoffset=-1   yoffset=7    xadvance=30   page=0    chnl=0 
char id=68      x=423  y=50   width=30   height=38   xoffset=-1   yoffset=7    xadvance=32   page=0    chnl=0 
char id=69      x=453  y=50   width=24   height=38   xoffset=-1   yoffset=7    xadvance=27   page=0    chnl=0 
char id=70      x=477  y=50   width=22   height=38   xoffset=-1   yoffset=7    xadvance=25   page=0    chnl=0 
char id=71      x=463  y=0    width=30   height=39   xoffset=-1   yoffset=7    xadvance=33   page=0    chnl=0 
char id=72      x=0    y=89   width=27   height=38   xoffset=-1   yoffset=7    xadvance=32   page=0    chnl=0 
char id=73      x=499  y=50   width=9    height=38   xoffset=-1   yoffset=7    xadvance=14   page=0    chnl=0 
char id=74      x=21   y=0    width=17   height=47   xoffset=-1   yoffset=7    xadvance=14   page=0    chnl=0 
char id=75      x=27   y=89   width=28   height=38   xoffset=-1   yoffset=7    xadvance=28   page=0    chnl=0 
char id=76      x=55   y=89   width=23   height=38   xoffset=-1   yoffset=7    xadvance=24   page=0    chnl=0 
char id=77      x=78   y=89   width=32   height=38   xoffset=-1   yoffset=7    xadvance=36   page=0    chnl=0 
char id=78      x=110  y=89   width=27   height=38   xoffset=-1   yoffset=7    xadvance=32   page=0    chnl=0 
char id=79      x=0    y=50   width=31   height=39   xoffset=-1   yoffset=7    xadvance=33   page=0    chnl=0 
char id=80      x=137  y=89   width=24   height=38   xoffset=-1   yoffset=7    xadvance=26   page=0    chnl=0 
char id=81      x=183  y=0    width=31   height=44   xoffset=-1   yoffset=7    xadvance=33   page=0    chnl=0 
char id=82      x=161  y=89   width=28   height=38   xoffset=-1   yoffset=7    xadvance=30   page=0    chnl=0 
char id=83      x=31   y=50   width=25   height=39   xoffset=-1   yoffset=7    xadvance=27   page=0    chnl=0 
char id=84      x=189  y=89   width=30   height=38   xoffset=-1   yoffset=7    xadvance=26   page=0    chnl=0 
char id=85      x=56   y=50   width=27   height=39   xoffset=-1   yoffset=7    xadvance=31   page=0    chnl=0 
char id=86      x=219  y=89   width=31   height=38   xoffset=-1   yoffset=7    xadvance=29   page=0    chnl=0 
char id=87      x=250  y=89   width=41   height=38   xoffset=-1   yoffset=7    xadvance=41   page=0    chnl=0 
char id=88      x=291  y=89   width=29   height=38   xoffset=-1   yoffset=7    xadvance=29   page=0    chnl=0 
char id=89      x=320  y=89   width=29   height=38   xoffset=-1   yoffset=7    xadvance=26   page=0    chnl=0 
char id=90      x=349  y=89   width=29   height=38   xoffset=-1   yoffset=7    xadvance=29   page=0    chnl=0 
char id=91      x=131  y=0    width=13   height=45   xoffset=-1   yoffset=6    xadvance=17   page=0    chnl=0 
char id=92      x=271  y=0    width=18   height=43   xoffset=-1   yoffset=7    xadvance=15   page=0    chnl=0 
char id=93      x=144  y=0    width=14   height=45   xoffset=-1   yoffset=6    xadvance=17   page=0    chnl=0 
char id=94      x=25   y=164  width=29   height=18   xoffset=-1   yoffset=7    xadvance=35   page=0    chnl=0 
char id=95      x=161  y=164  width=26   height=9    xoffset=-1   yoffset=47   xadvance=22   page=0    chnl=0 
char id=96      x=93   y=164  width=14   height=14   xoffset=-1   yoffset=4    xadvance=22   page=0    chnl=0 
char id=97      x=89   y=127  width=23   height=31   xoffset=-1   yoffset=15   xadvance=26   page=0    chnl=0 
char id=98      x=289  y=0    width=24   height=40   xoffset=-1   yoffset=6    xadvance=27   page=0    chnl=0 
char id=99      x=112  y=127  width=22   height=31   xoffset=-1   yoffset=15   xadvance=24   page=0    chnl=0 
char id=100     x=313  y=0    width=24   height=40   xoffset=-1   yoffset=6    xadvance=27   page=0    chnl=0 
char id=101     x=134  y=127  width=25   height=31   xoffset=-1   yoffset=15   xadvance=26   page=0    chnl=0 
char id=102     x=83   y=50   width=19   height=39   xoffset=-1   yoffset=6    xadvance=16   page=0    chnl=0 
char id=103     x=337  y=0    width=24   height=40   xoffset=-1   yoffset=15   xadvance=27   page=0    chnl=0 
char id=104     x=102  y=50   width=23   height=39   xoffset=-1   yoffset=6    xadvance=27   page=0    chnl=0 
char id=105     x=493  y=0    width=9    height=39   xoffset=-1   yoffset=6    xadvance=13   page=0    chnl=0 
char id=106     x=8    y=0    width=13   height=49   xoffset=-1   yoffset=6    xadvance=13   page=0    chnl=0 
char id=107     x=125  y=50   width=24   height=39   xoffset=-1   yoffset=6    xadvance=25   page=0    chnl=0 
char id=108     x=502  y=0    width=9    height=39   xoffset=-1   yoffset=6    xadvance=13   page=0    chnl=0 
char id=109     x=228  y=127  width=37   height=30   xoffset=-1   yoffset=15   xadvance=41   page=0    chnl=0 
char id=110     x=265  y=127  width=23   height=30   xoffset=-1   yoffset=15   xadvance=27   page=0    chnl=0 
char id=111     x=159  y=127  width=25   height=31   xoffset=-1   yoffset=15   xadvance=26   page=0    chnl=0 
char id=112     x=361  y=0    width=24   height=40   xoffset=-1   yoffset=15   xadvance=27   page=0    chnl=0 
char id=113     x=385  y=0    width=24   height=40   xoffset=-1   yoffset=15   xadvance=27   page=0    chnl=0 
char id=114     x=288  y=127  width=18   height=30   xoffset=-1   yoffset=15   xadvance=18   page=0    chnl=0 
char id=115     x=184  y=127  width=21   height=31   xoffset=-1   yoffset=15   xadvance=23   page=0    chnl=0 
char id=116     x=32   y=127  width=18   height=36   xoffset=-1   yoffset=9    xadvance=18   page=0    chnl=0 
char id=117     x=205  y=127  width=23   height=31   xoffset=-1   yoffset=15   xadvance=27   page=0    chnl=0 
char id=118     x=306  y=127  width=26   height=30   xoffset=-1   yoffset=15   xadvance=25   page=0    chnl=0 
char id=119     x=332  y=127  width=34   height=30   xoffset=-1   yoffset=15   xadvance=34   page=0    chnl=0 
char id=120     x=366  y=127  width=26   height=30   xoffset=-1   yoffset=15   xadvance=25   page=0    chnl=0 
char id=121     x=409  y=0    width=26   height=40   xoffset=-1   yoffset=15   xadvance=25   page=0    chnl=0 
char id=122     x=392  y=127  width=23   height=30   xoffset=-1   yoffset=15   xadvance=23   page=0    chnl=0 
char id=123     x=38   y=0    width=21   height=47   xoffset=-1   yoffset=6    xadvance=27   page=0    chnl=0 
char id=124     x=0    y=0    width=8    height=50   xoffset=-1   yoffset=6    xadvance=15   page=0    chnl=0 
char id=125     x=59   y=0    width=21   height=47   xoffset=-1   yoffset=6    xadvance=27   page=0    chnl=0 
char id=126     x=107  y=164  width=29   height=13   xoffset=-1   yoffset=22   xadvance=35   page=0    chnl=0 
kernings count=220
kerning first=87 second=58 amount=-3
kerning first=45 second=66 amount=-2
kerning first=45 second=74 amount=2
kerning first=65 second=81 amount=-1
kerning first=70 second=83 amount=-1
kerning first=75 second=85 amount=-1
kerning first=75 second=89 amount=-2
kerning first=85 second=90 amount=-1
kerning first=65 second=102 amount=-2
kerning first=70 second=105 amount=-3
kerning first=89 second=111 amount=-6
kerning first=101 second=120 amount=-1
kerning first=70 second=84 amount=-1
kerning first=84 second=117 amount=-7
kerning first=114 second=110 amount=-1
kerning first=119 second=46 amount=-4
kerning first=70 second=117 amount=-2
kerning first=75 second=111 amount=-2
kerning first=80 second=101 amount=-2
kerning first=65 second=58 amount=-1
kerning first=111 second=46 amount=-1
kerning first=74 second=65 amount=-1
kerning first=45 second=86 amount=-3
kerning first=107 second=97 amount=-1
kerning first=86 second=105 amount=-1
kerning first=88 second=67 amount=-3
kerning first=84 second=114 amount=-6
kerning first=76 second=87 amount=-4
kerning first=107 second=111 amount=-2
kerning first=79 second=58 amount=-1
kerning first=65 second=89 amount=-3
kerning first=75 second=79 amount=-2
kerning first=80 second=45 amount=-1
kerning first=70 second=58 amount=-3
kerning first=114 second=113 amount=-1
kerning first=45 second=84 amount=-4
kerning first=84 second=121 amount=-7
kerning first=65 second=87 amount=-2
kerning first=89 second=46 amount=-9
kerning first=76 second=86 amount=-5
kerning first=82 second=67 amount=-2
kerning first=114 second=109 amount=-1
kerning first=76 second=117 amount=-1
kerning first=87 second=117 amount=-2
kerning first=45 second=88 amount=-2
kerning first=45 second=81 amount=2
kerning first=84 second=58 amount=-5
kerning first=75 second=45 amount=-5
kerning first=111 second=45 amount=1
kerning first=65 second=86 amount=-3
kerning first=82 second=87 amount=-2
kerning first=86 second=45 amount=-3
kerning first=75 second=84 amount=-3
kerning first=87 second=114 amount=-2
kerning first=65 second=121 amount=-3
kerning first=65 second=118 amount=-3
kerning first=87 second=121 amount=-1
kerning first=86 second=111 amount=-3
kerning first=114 second=46 amount=-4
kerning first=86 second=101 amount=-3
kerning first=80 second=65 amount=-3
kerning first=76 second=121 amount=-4
kerning first=89 second=105 amount=-2
kerning first=70 second=46 amount=-7
kerning first=80 second=111 amount=-2
kerning first=81 second=45 amount=1
kerning first=75 second=101 amount=-2
kerning first=65 second=67 amount=-1
kerning first=45 second=121 amount=-1
kerning first=87 second=46 amount=-5
kerning first=45 second=118 amount=-1
kerning first=70 second=121 amount=-4
kerning first=89 second=101 amount=-6
kerning first=84 second=46 amount=-5
kerning first=114 second=45 amount=-3
kerning first=80 second=115 amount=-1
kerning first=80 second=97 amount=-2
kerning first=114 second=101 amount=-1
kerning first=65 second=119 amount=-2
kerning first=89 second=45 amount=-5
kerning first=114 second=120 amount=-1
kerning first=84 second=67 amount=-3
kerning first=68 second=89 amount=-2
kerning first=79 second=88 amount=-3
kerning first=75 second=121 amount=-3
kerning first=86 second=58 amount=-4
kerning first=111 second=120 amount=-1
kerning first=45 second=79 amount=1
kerning first=86 second=65 amount=-3
kerning first=70 second=114 amount=-3
kerning first=45 second=87 amount=-2
kerning first=102 second=119 amount=-1
kerning first=79 second=89 amount=-2
kerning first=84 second=45 amount=-4
kerning first=75 second=65 amount=-1
kerning first=84 second=115 amount=-7
kerning first=82 second=89 amount=-3
kerning first=89 second=79 amount=-2
kerning first=89 second=65 amount=-3
kerning first=82 second=117 amount=-2
kerning first=80 second=105 amount=-1
kerning first=65 second=116 amount=-1
kerning first=76 second=89 amount=-6
kerning first=89 second=58 amount=-6
kerning first=79 second=46 amount=-2
kerning first=90 second=45 amount=-1
kerning first=86 second=117 amount=-3
kerning first=66 second=86 amount=-1
kerning first=84 second=101 amount=-7
kerning first=120 second=101 amount=-1
kerning first=82 second=97 amount=-1
kerning first=88 second=84 amount=-1
kerning first=72 second=46 amount=-1
kerning first=65 second=45 amount=-1
kerning first=80 second=89 amount=-1
kerning first=65 second=46 amount=-1
kerning first=119 second=58 amount=-2
kerning first=76 second=45 amount=-1
kerning first=75 second=87 amount=-2
kerning first=87 second=45 amount=-2
kerning first=89 second=97 amount=-6
kerning first=71 second=89 amount=-2
kerning first=83 second=65 amount=1
kerning first=87 second=101 amount=-3
kerning first=66 second=83 amount=-1
kerning first=86 second=121 amount=-1
kerning first=45 second=65 amount=-1
kerning first=102 second=116 amount=-1
kerning first=82 second=111 amount=-2
kerning first=70 second=101 amount=-2
kerning first=71 second=84 amount=-2
kerning first=75 second=67 amount=-2
kerning first=76 second=101 amount=-1
kerning first=70 second=65 amount=-4
kerning first=102 second=121 amount=-1
kerning first=82 second=45 amount=-2
kerning first=118 second=45 amount=-1
kerning first=75 second=97 amount=-1
kerning first=65 second=101 amount=-1
kerning first=76 second=79 amount=-2
kerning first=118 second=46 amount=-3
kerning first=82 second=46 amount=-2
kerning first=80 second=114 amount=-1
kerning first=114 second=114 amount=-1
kerning first=84 second=99 amount=-7
kerning first=120 second=99 amount=-1
kerning first=86 second=97 amount=-3
kerning first=102 second=58 amount=-2
kerning first=65 second=79 amount=-1
kerning first=65 second=100 amount=-1
kerning first=84 second=65 amount=-3
kerning first=65 second=111 amount=-1
kerning first=80 second=117 amount=-1
kerning first=121 second=46 amount=-6
kerning first=114 second=100 amount=-1
kerning first=66 second=89 amount=-2
kerning first=45 second=71 amount=2
kerning first=79 second=45 amount=1
kerning first=114 second=111 amount=-1
kerning first=82 second=84 amount=-3
kerning first=107 second=117 amount=-1
kerning first=114 second=104 amount=-1
kerning first=87 second=65 amount=-2
kerning first=67 second=89 amount=-1
kerning first=87 second=111 amount=-3
kerning first=80 second=110 amount=-1
kerning first=75 second=117 amount=-2
kerning first=82 second=86 amount=-2
kerning first=65 second=99 amount=-1
kerning first=121 second=58 amount=-3
kerning first=86 second=46 amount=-6
kerning first=87 second=97 amount=-3
kerning first=82 second=101 amount=-2
kerning first=74 second=45 amount=-2
kerning first=76 second=65 amount=1
kerning first=76 second=111 amount=-1
kerning first=65 second=113 amount=-1
kerning first=66 second=79 amount=-1
kerning first=86 second=79 amount=-1
kerning first=114 second=103 amount=-1
kerning first=114 second=58 amount=-1
kerning first=84 second=111 amount=-7
kerning first=120 second=111 amount=-1
kerning first=76 second=84 amount=-6
kerning first=107 second=101 amount=-2
kerning first=102 second=46 amount=-3
kerning first=121 second=45 amount=-1
kerning first=65 second=65 amount=1
kerning first=65 second=84 amount=-3
kerning first=45 second=89 amount=-5
kerning first=89 second=67 amount=-2
kerning first=68 second=86 amount=-1
kerning first=79 second=86 amount=-1
kerning first=88 second=79 amount=-3
kerning first=66 second=67 amount=-1
kerning first=79 second=65 amount=-1
kerning first=82 second=121 amount=-2
kerning first=80 second=46 amount=-7
kerning first=70 second=111 amount=-2
kerning first=65 second=71 amount=-1
kerning first=84 second=97 amount=-7
kerning first=68 second=65 amount=-1
kerning first=70 second=97 amount=-4
kerning first=76 second=85 amount=-2
kerning first=107 second=121 amount=-2
kerning first=84 second=119 amount=-7
kerning first=84 second=105 amount=-1
kerning first=102 second=45 amount=-2
kerning first=84 second=84 amount=-1
kerning first=89 second=117 amount=-5
kerning first=88 second=101 amount=-2
kerning first=66 second=71 amount=-1
kerning first=118 second=58 amount=-2
kerning first=82 second=58 amount=-1
kerning first=82 second=65 amount=-2
kerning first=114 second=99 amount=-1
kerning first=87 second=105 amount=-1
kerning first=66 second=87 amount=-2
kerning first=88 second=45 amount=-2
kerning first=45 second=111 amount=1
