{
  com.badlogic.gdx.graphics.Color: {
  green: { a: 1, b: 0, g: 1, r: 0 },
  white: { a: 1, b: 1, g: 1, r: 1 },
  red: { a: 1, b: 0, g: 0, r: 1 },
  black: { a: 1, b: 0, g: 0, r: 0 },
},
  com.badlogic.gdx.scenes.scene2d.ui.Button$ButtonStyle: {
  start: { down: start_down, up: start_up },
  developers: { down: developers_down, up: developers_up },
  settings: { down: settings_down, up: settings_up },
  exit: { down: exit_down, up: exit_up },
  btnAlamat: { down: btn_alamat, up: btn_alamat },
  btnKwento: { down: btn_kwento, up: btn_kwento },
  btnEpiko: { down: btn_epiko, up: btn_epiko },
  btnPabula: { down: btn_pabula, up: btn_pabula },
  btnParabula: { down: btn_parabula, up: btn_parabula },
  btnHome: { down: btn_home, up: btn_home },
},
  com.badlogic.gdx.scenes.scene2d.ui.Slider$SliderStyle: {
  default: { background: slider_bg, knob: slider_knob },
},
}