{
  com.badlogic.gdx.graphics.Color: {
  green: { a: 1, b: 0, g: 1, r: 0 },
  white: { a: 1, b: 1, g: 1, r: 1 },
  red: { a: 1, b: 0, g: 0, r: 1 },
  black: { a: 1, b: 0, g: 0, r: 0 },
},
  com.badlogic.gdx.graphics.g2d.BitmapFont: {
  default-font: { file: default.fnt }
  big: { file: big.fnt }
  small: { file: small.fnt }
},
  com.badlogic.gdx.scenes.scene2d.ui.Label$LabelStyle: {
  big: { font: big, fontColor: white },
  small: { font: small, fontColor: white }
},
  com.badlogic.gdx.scenes.scene2d.ui.TextButton$TextButtonStyle: {
  default: { down: default-btn, up: default-btn, font: default-font, fontColor: white },
  choiceBtn: { down: blank, up: blank, font: small, fontColor: white }

},
}