info face="DejaVu Sans Condensed" size=24 bold=0 italic=0 charset="" unicode=0 stretchH=100 smooth=1 aa=1 padding=1,1,4,3 spacing=-2,-2
common lineHeight=32 base=23 scaleW=512 scaleH=128 pages=1 packed=0
page id=0 file="small.png"
chars count=97
char id=0       x=153  y=0    width=15   height=27   xoffset=-1   yoffset=5    xadvance=15   page=0    chnl=0 
char id=10      x=0    y=0    width=0    height=0    xoffset=-1   yoffset=0    xadvance=2    page=0    chnl=0 
char id=32      x=0    y=0    width=0    height=0    xoffset=-1   yoffset=0    xadvance=9    page=0    chnl=0 
char id=33      x=443  y=30   width=7    height=23   xoffset=-1   yoffset=4    xadvance=11   page=0    chnl=0 
char id=34      x=296  y=54   width=10   height=12   xoffset=-1   yoffset=4    xadvance=12   page=0    chnl=0 
char id=35      x=463  y=30   width=20   height=23   xoffset=-1   yoffset=4    xadvance=20   page=0    chnl=0 
char id=36      x=95   y=0    width=15   height=28   xoffset=-1   yoffset=3    xadvance=16   page=0    chnl=0 
char id=37      x=16   y=30   width=23   height=24   xoffset=-1   yoffset=4    xadvance=23   page=0    chnl=0 
char id=38      x=39   y=30   width=20   height=24   xoffset=-1   yoffset=4    xadvance=19   page=0    chnl=0 
char id=39      x=306  y=54   width=6    height=12   xoffset=-1   yoffset=4    xadvance=8    page=0    chnl=0 
char id=40      x=28   y=0    width=10   height=28   xoffset=-1   yoffset=3    xadvance=10   page=0    chnl=0 
char id=41      x=38   y=0    width=10   height=28   xoffset=-1   yoffset=3    xadvance=10   page=0    chnl=0 
char id=42      x=263  y=54   width=15   height=17   xoffset=-1   yoffset=4    xadvance=13   page=0    chnl=0 
char id=43      x=0    y=54   width=18   height=21   xoffset=-1   yoffset=6    xadvance=20   page=0    chnl=0 
char id=44      x=340  y=54   width=8    height=11   xoffset=-1   yoffset=19   xadvance=9    page=0    chnl=0 
char id=45      x=373  y=54   width=10   height=8    xoffset=-1   yoffset=14   xadvance=10   page=0    chnl=0 
char id=46      x=366  y=54   width=7    height=8    xoffset=-1   yoffset=19   xadvance=9    page=0    chnl=0 
char id=47      x=168  y=0    width=12   height=26   xoffset=-1   yoffset=4    xadvance=9    page=0    chnl=0 
char id=48      x=0    y=30   width=16   height=24   xoffset=-1   yoffset=4    xadvance=16   page=0    chnl=0 
char id=49      x=383  y=30   width=14   height=23   xoffset=-1   yoffset=4    xadvance=16   page=0    chnl=0 
char id=50      x=397  y=30   width=15   height=23   xoffset=-1   yoffset=4    xadvance=16   page=0    chnl=0 
char id=51      x=429  y=0    width=16   height=24   xoffset=-1   yoffset=4    xadvance=16   page=0    chnl=0 
char id=52      x=412  y=30   width=16   height=23   xoffset=-1   yoffset=4    xadvance=16   page=0    chnl=0 
char id=53      x=445  y=0    width=15   height=24   xoffset=-1   yoffset=4    xadvance=16   page=0    chnl=0 
char id=54      x=460  y=0    width=16   height=24   xoffset=-1   yoffset=4    xadvance=16   page=0    chnl=0 
char id=55      x=428  y=30   width=15   height=23   xoffset=-1   yoffset=4    xadvance=16   page=0    chnl=0 
char id=56      x=476  y=0    width=16   height=24   xoffset=-1   yoffset=4    xadvance=16   page=0    chnl=0 
char id=57      x=492  y=0    width=16   height=24   xoffset=-1   yoffset=4    xadvance=16   page=0    chnl=0 
char id=58      x=503  y=30   width=7    height=18   xoffset=-1   yoffset=9    xadvance=9    page=0    chnl=0 
char id=59      x=495  y=30   width=8    height=21   xoffset=-1   yoffset=9    xadvance=9    page=0    chnl=0 
char id=60      x=227  y=54   width=18   height=18   xoffset=-1   yoffset=8    xadvance=20   page=0    chnl=0 
char id=61      x=312  y=54   width=18   height=12   xoffset=-1   yoffset=11   xadvance=20   page=0    chnl=0 
char id=62      x=245  y=54   width=18   height=18   xoffset=-1   yoffset=8    xadvance=20   page=0    chnl=0 
char id=63      x=450  y=30   width=13   height=23   xoffset=-1   yoffset=4    xadvance=13   page=0    chnl=0 
char id=64      x=129  y=0    width=24   height=27   xoffset=-1   yoffset=5    xadvance=24   page=0    chnl=0 
char id=65      x=59   y=30   width=19   height=23   xoffset=-1   yoffset=4    xadvance=17   page=0    chnl=0 
char id=66      x=78   y=30   width=16   height=23   xoffset=-1   yoffset=4    xadvance=17   page=0    chnl=0 
char id=67      x=223  y=0    width=17   height=24   xoffset=-1   yoffset=4    xadvance=17   page=0    chnl=0 
char id=68      x=94   y=30   width=18   height=23   xoffset=-1   yoffset=4    xadvance=19   page=0    chnl=0 
char id=69      x=112  y=30   width=15   height=23   xoffset=-1   yoffset=4    xadvance=16   page=0    chnl=0 
char id=70      x=127  y=30   width=14   height=23   xoffset=-1   yoffset=4    xadvance=14   page=0    chnl=0 
char id=71      x=240  y=0    width=18   height=24   xoffset=-1   yoffset=4    xadvance=19   page=0    chnl=0 
char id=72      x=141  y=30   width=17   height=23   xoffset=-1   yoffset=4    xadvance=18   page=0    chnl=0 
char id=73      x=158  y=30   width=7    height=23   xoffset=-1   yoffset=4    xadvance=8    page=0    chnl=0 
char id=74      x=16   y=0    width=12   height=28   xoffset=-1   yoffset=4    xadvance=8    page=0    chnl=0 
char id=75      x=165  y=30   width=17   height=23   xoffset=-1   yoffset=4    xadvance=16   page=0    chnl=0 
char id=76      x=182  y=30   width=14   height=23   xoffset=-1   yoffset=4    xadvance=14   page=0    chnl=0 
char id=77      x=196  y=30   width=19   height=23   xoffset=-1   yoffset=4    xadvance=21   page=0    chnl=0 
char id=78      x=215  y=30   width=17   height=23   xoffset=-1   yoffset=4    xadvance=18   page=0    chnl=0 
char id=79      x=258  y=0    width=19   height=24   xoffset=-1   yoffset=4    xadvance=19   page=0    chnl=0 
char id=80      x=232  y=30   width=15   height=23   xoffset=-1   yoffset=4    xadvance=15   page=0    chnl=0 
char id=81      x=110  y=0    width=19   height=27   xoffset=-1   yoffset=4    xadvance=19   page=0    chnl=0 
char id=82      x=247  y=30   width=17   height=23   xoffset=-1   yoffset=4    xadvance=17   page=0    chnl=0 
char id=83      x=277  y=0    width=16   height=24   xoffset=-1   yoffset=4    xadvance=16   page=0    chnl=0 
char id=84      x=264  y=30   width=19   height=23   xoffset=-1   yoffset=4    xadvance=15   page=0    chnl=0 
char id=85      x=293  y=0    width=17   height=24   xoffset=-1   yoffset=4    xadvance=18   page=0    chnl=0 
char id=86      x=283  y=30   width=19   height=23   xoffset=-1   yoffset=4    xadvance=17   page=0    chnl=0 
char id=87      x=302  y=30   width=25   height=23   xoffset=-1   yoffset=4    xadvance=23   page=0    chnl=0 
char id=88      x=327  y=30   width=19   height=23   xoffset=-1   yoffset=4    xadvance=17   page=0    chnl=0 
char id=89      x=346  y=30   width=19   height=23   xoffset=-1   yoffset=4    xadvance=15   page=0    chnl=0 
char id=90      x=365  y=30   width=18   height=23   xoffset=-1   yoffset=4    xadvance=17   page=0    chnl=0 
char id=91      x=48   y=0    width=10   height=28   xoffset=-1   yoffset=3    xadvance=10   page=0    chnl=0 
char id=92      x=180  y=0    width=12   height=26   xoffset=-1   yoffset=4    xadvance=9    page=0    chnl=0 
char id=93      x=58   y=0    width=9    height=28   xoffset=-1   yoffset=3    xadvance=10   page=0    chnl=0 
char id=94      x=278  y=54   width=18   height=13   xoffset=-1   yoffset=4    xadvance=20   page=0    chnl=0 
char id=95      x=383  y=54   width=17   height=8    xoffset=-1   yoffset=25   xadvance=13   page=0    chnl=0 
char id=96      x=330  y=54   width=10   height=11   xoffset=-1   yoffset=2    xadvance=13   page=0    chnl=0 
char id=97      x=18   y=54   width=15   height=20   xoffset=-1   yoffset=8    xadvance=15   page=0    chnl=0 
char id=98      x=192  y=0    width=16   height=25   xoffset=-1   yoffset=3    xadvance=16   page=0    chnl=0 
char id=99      x=33   y=54   width=14   height=20   xoffset=-1   yoffset=8    xadvance=14   page=0    chnl=0 
char id=100     x=208  y=0    width=15   height=25   xoffset=-1   yoffset=3    xadvance=16   page=0    chnl=0 
char id=101     x=47   y=54   width=16   height=20   xoffset=-1   yoffset=8    xadvance=15   page=0    chnl=0 
char id=102     x=310  y=0    width=13   height=24   xoffset=-1   yoffset=3    xadvance=10   page=0    chnl=0 
char id=103     x=323  y=0    width=15   height=24   xoffset=-1   yoffset=8    xadvance=16   page=0    chnl=0 
char id=104     x=338  y=0    width=15   height=24   xoffset=-1   yoffset=3    xadvance=16   page=0    chnl=0 
char id=105     x=353  y=0    width=6    height=24   xoffset=-1   yoffset=3    xadvance=8    page=0    chnl=0 
char id=106     x=7    y=0    width=9    height=29   xoffset=-1   yoffset=3    xadvance=8    page=0    chnl=0 
char id=107     x=359  y=0    width=16   height=24   xoffset=-1   yoffset=3    xadvance=15   page=0    chnl=0 
char id=108     x=375  y=0    width=6    height=24   xoffset=-1   yoffset=3    xadvance=8    page=0    chnl=0 
char id=109     x=108  y=54   width=23   height=19   xoffset=-1   yoffset=8    xadvance=23   page=0    chnl=0 
char id=110     x=131  y=54   width=15   height=19   xoffset=-1   yoffset=8    xadvance=16   page=0    chnl=0 
char id=111     x=63   y=54   width=16   height=20   xoffset=-1   yoffset=8    xadvance=15   page=0    chnl=0 
char id=112     x=381  y=0    width=16   height=24   xoffset=-1   yoffset=8    xadvance=16   page=0    chnl=0 
char id=113     x=397  y=0    width=15   height=24   xoffset=-1   yoffset=8    xadvance=16   page=0    chnl=0 
char id=114     x=146  y=54   width=12   height=19   xoffset=-1   yoffset=8    xadvance=11   page=0    chnl=0 
char id=115     x=79   y=54   width=14   height=20   xoffset=-1   yoffset=8    xadvance=13   page=0    chnl=0 
char id=116     x=483  y=30   width=12   height=22   xoffset=-1   yoffset=5    xadvance=10   page=0    chnl=0 
char id=117     x=93   y=54   width=15   height=20   xoffset=-1   yoffset=8    xadvance=16   page=0    chnl=0 
char id=118     x=158  y=54   width=17   height=19   xoffset=-1   yoffset=8    xadvance=15   page=0    chnl=0 
char id=119     x=175  y=54   width=21   height=19   xoffset=-1   yoffset=8    xadvance=20   page=0    chnl=0 
char id=120     x=196  y=54   width=16   height=19   xoffset=-1   yoffset=8    xadvance=15   page=0    chnl=0 
char id=121     x=412  y=0    width=17   height=24   xoffset=-1   yoffset=8    xadvance=15   page=0    chnl=0 
char id=122     x=212  y=54   width=15   height=19   xoffset=-1   yoffset=8    xadvance=13   page=0    chnl=0 
char id=123     x=67   y=0    width=14   height=28   xoffset=-1   yoffset=3    xadvance=16   page=0    chnl=0 
char id=124     x=0    y=0    width=7    height=30   xoffset=-1   yoffset=3    xadvance=9    page=0    chnl=0 
char id=125     x=81   y=0    width=14   height=28   xoffset=-1   yoffset=3    xadvance=16   page=0    chnl=0 
char id=126     x=348  y=54   width=18   height=10   xoffset=-1   yoffset=12   xadvance=20   page=0    chnl=0 
kernings count=158
kerning first=118 second=58 amount=-1
kerning first=45 second=66 amount=-1
kerning first=88 second=67 amount=-2
kerning first=45 second=71 amount=1
kerning first=45 second=74 amount=1
kerning first=45 second=81 amount=1
kerning first=65 second=89 amount=-2
kerning first=84 second=99 amount=-4
kerning first=70 second=105 amount=-2
kerning first=70 second=114 amount=-2
kerning first=84 second=115 amount=-4
kerning first=45 second=118 amount=-1
kerning first=76 second=121 amount=-2
kerning first=84 second=121 amount=-4
kerning first=75 second=45 amount=-3
kerning first=82 second=67 amount=-1
kerning first=82 second=111 amount=-1
kerning first=87 second=111 amount=-1
kerning first=65 second=119 amount=-1
kerning first=79 second=46 amount=-1
kerning first=80 second=101 amount=-1
kerning first=82 second=89 amount=-2
kerning first=84 second=45 amount=-2
kerning first=107 second=111 amount=-1
kerning first=86 second=45 amount=-1
kerning first=120 second=111 amount=-1
kerning first=80 second=97 amount=-1
kerning first=84 second=117 amount=-4
kerning first=65 second=121 amount=-2
kerning first=71 second=84 amount=-1
kerning first=45 second=87 amount=-1
kerning first=87 second=58 amount=-1
kerning first=121 second=46 amount=-3
kerning first=45 second=89 amount=-3
kerning first=79 second=88 amount=-2
kerning first=45 second=79 amount=1
kerning first=89 second=79 amount=-1
kerning first=70 second=117 amount=-1
kerning first=84 second=114 amount=-4
kerning first=82 second=86 amount=-1
kerning first=80 second=105 amount=-1
kerning first=82 second=46 amount=-1
kerning first=80 second=45 amount=-1
kerning first=70 second=111 amount=-1
kerning first=86 second=101 amount=-2
kerning first=80 second=65 amount=-2
kerning first=86 second=58 amount=-2
kerning first=102 second=46 amount=-2
kerning first=89 second=101 amount=-3
kerning first=76 second=84 amount=-3
kerning first=84 second=67 amount=-1
kerning first=75 second=101 amount=-1
kerning first=65 second=84 amount=-2
kerning first=75 second=79 amount=-1
kerning first=84 second=111 amount=-4
kerning first=84 second=58 amount=-3
kerning first=66 second=89 amount=-1
kerning first=75 second=121 amount=-2
kerning first=107 second=117 amount=-1
kerning first=68 second=89 amount=-1
kerning first=76 second=87 amount=-2
kerning first=120 second=101 amount=-1
kerning first=114 second=101 amount=-1
kerning first=89 second=58 amount=-3
kerning first=82 second=117 amount=-1
kerning first=87 second=105 amount=-1
kerning first=45 second=88 amount=-1
kerning first=81 second=45 amount=1
kerning first=86 second=65 amount=-2
kerning first=75 second=85 amount=-1
kerning first=86 second=105 amount=-1
kerning first=76 second=65 amount=1
kerning first=65 second=87 amount=-1
kerning first=114 second=45 amount=-2
kerning first=80 second=89 amount=-1
kerning first=70 second=121 amount=-2
kerning first=89 second=105 amount=-1
kerning first=80 second=46 amount=-4
kerning first=70 second=58 amount=-2
kerning first=89 second=45 amount=-3
kerning first=89 second=97 amount=-3
kerning first=87 second=114 amount=-1
kerning first=66 second=86 amount=-1
kerning first=89 second=65 amount=-2
kerning first=87 second=97 amount=-2
kerning first=82 second=45 amount=-1
kerning first=118 second=45 amount=-1
kerning first=75 second=67 amount=-1
kerning first=84 second=101 amount=-4
kerning first=75 second=111 amount=-1
kerning first=102 second=58 amount=-1
kerning first=82 second=87 amount=-1
kerning first=45 second=84 amount=-2
kerning first=107 second=101 amount=-1
kerning first=79 second=89 amount=-1
kerning first=114 second=111 amount=-1
kerning first=88 second=79 amount=-2
kerning first=89 second=111 amount=-3
kerning first=89 second=67 amount=-1
kerning first=87 second=101 amount=-1
kerning first=45 second=65 amount=-1
kerning first=119 second=46 amount=-2
kerning first=79 second=45 amount=1
kerning first=86 second=46 amount=-3
kerning first=75 second=84 amount=-2
kerning first=70 second=65 amount=-2
kerning first=70 second=97 amount=-2
kerning first=70 second=101 amount=-1
kerning first=84 second=97 amount=-4
kerning first=65 second=45 amount=-1
kerning first=114 second=46 amount=-2
kerning first=84 second=65 amount=-2
kerning first=66 second=87 amount=-1
kerning first=87 second=45 amount=-1
kerning first=75 second=89 amount=-1
kerning first=71 second=89 amount=-1
kerning first=65 second=118 amount=-1
kerning first=119 second=58 amount=-1
kerning first=89 second=46 amount=-5
kerning first=86 second=121 amount=-1
kerning first=86 second=111 amount=-2
kerning first=114 second=99 amount=-1
kerning first=84 second=46 amount=-3
kerning first=87 second=65 amount=-1
kerning first=107 second=121 amount=-1
kerning first=114 second=120 amount=-1
kerning first=102 second=45 amount=-1
kerning first=82 second=101 amount=-1
kerning first=76 second=85 amount=-1
kerning first=89 second=117 amount=-3
kerning first=65 second=86 amount=-2
kerning first=82 second=58 amount=-1
kerning first=70 second=46 amount=-4
kerning first=65 second=65 amount=1
kerning first=80 second=111 amount=-1
kerning first=86 second=117 amount=-2
kerning first=76 second=86 amount=-3
kerning first=82 second=97 amount=-1
kerning first=88 second=45 amount=-1
kerning first=82 second=121 amount=-1
kerning first=75 second=117 amount=-1
kerning first=76 second=79 amount=-1
kerning first=86 second=97 amount=-2
kerning first=45 second=86 amount=-1
kerning first=118 second=46 amount=-2
kerning first=84 second=119 amount=-4
kerning first=121 second=58 amount=-2
kerning first=74 second=45 amount=-1
kerning first=87 second=46 amount=-3
kerning first=84 second=105 amount=-1
kerning first=75 second=87 amount=-1
kerning first=82 second=84 amount=-2
kerning first=111 second=120 amount=-1
kerning first=65 second=102 amount=-1
kerning first=82 second=65 amount=-1
kerning first=76 second=89 amount=-3
kerning first=88 second=101 amount=-1
kerning first=87 second=117 amount=-1
